Challenge 1 Attempt
…
This data set looks at the number of employees working at railroads across different U.S. counties in 2012. The data set includes states, counties, and the total number of employees. The data was most likely gathered from government employment records, or from the the railroads directly. The U.S. Department of Transportation may have gathered this data, or gathers other data like this. The data set has three columns, one for each state, county, and the number of employees at railroads. The data set has 2,930 rows, one for each county (I assume it only includes U.S. county’s with railroads, as Google says there are 3,006 counties in the U.S., but only 2,920 counties in the data set). The cases are counties, and number of employees is the variable that changes across counties.

There is data taken from 53 states/territories:

Code

railroad_2012_clean_county%>% #Using the pipeline command to apply future commands to this data
  group_by(state)%>% #Grouping the data by state
  slice(1) #slicing the data so there is one unique state per row/no duplicate states

# A tibble: 53 × 3
# Groups:   state [53]
   state county        total_employees
   <chr> <chr>                   <dbl>
 1 AE    APO                         2
 2 AK    ANCHORAGE                   7
 3 AL    AUTAUGA                   102
 4 AP    APO                         1
 5 AR    ARKANSAS                   11
 6 AZ    APACHE                    270
 7 CA    ALAMEDA                   346
 8 CO    ADAMS                     553
 9 CT    FAIRFIELD                 486
10 DC    WASHINGTON DC             279
# … with 43 more rows
# ℹ Use `print(n = ...)` to see more rows
…
Code

summarize(railroad_2012_clean_county, sum(total_employees))

# A tibble: 1 × 1
  `sum(total_employees)`
                   <dbl>
1                 255432

Code

#This code arranges the data set by the number of employees at each railroad, from greatest to least
arrange(railroad_2012_clean_county, desc(total_employees))

# A tibble: 2,930 × 3
   state county           total_employees
   <chr> <chr>                      <dbl>
 1 IL    COOK                        8207
 2 TX    TARRANT                     4235
 3 NE    DOUGLAS                     3797
 4 NY    SUFFOLK                     3685
 5 VA    INDEPENDENT CITY            3249
 6 FL    DUVAL                       3073
 7 CA    SAN BERNARDINO              2888
 8 CA    LOS ANGELES                 2545
 9 TX    HARRIS                      2535
10 NE    LINCOLN                     2289
# … with 2,920 more rows
# ℹ Use `print(n = ...)` to see more rows
…
